1.wav
1.74    4.1
15.85   18
26      28
2.wav
1.5     3.6
4       4.85
5.1     6.15
12      14.7
17      18.3
18.5    19.5
24.8    26.2
31      33.5
3.wav
2.7     4.9
8.46    10.9
11.9    13.5
14.1    15.9
21.4    23.3
24.1    26.1
30.6    32.6
33.8    35.8
36.4    38.2
44      45.9
52      54.7
4.wav
3       6
11.3    13.1
14      17
19      21.1
26      28
32      33.8
34      36
38.4    40.5
5.wav
1       4.5
7       10
15.5    22
27.2    32
34      39
46.5    49.5
6.wav
3       5
12.5    14.5
14.6    18
19      20.6
20.7    22.3
24      25.7
26.2    28
32.9    34.7
7.wav
1.8     3.9
6       8.8
23.3    26
29.6    33
34      35.8
36.9    39
8.wav
1.6     4
8       10.3
10.5    13.5
19.5    21.9
23      25
27.4    29.4
34.5    30.3
39.3    41.7
9.wav
2       4.6
4.7     5.5
5.8     7.8
11      14
17.4    19
19.9    21.6
24.4    27
30      32.4
35.7    37.6
10.wav
1       3.2
3.3     4.5
8.1     10.6
12      16
16.2    18
19      21
21.4    23
28      29.7
29.8    31.6
33      34.8
36.5    38.4
39.2    41
41.7    43.2
11.wav
2       3.7
6.3     8
8.8     10.2
10.5    12.2
15.7    17.2
20.5    23.1
30.3    32.3
34.4    36.2

88
